{
  "coverage": {
    "OxidiqueToken": {
      "branches": {
        "OxidiqueToken.transfer": [
          1,
          1,
          1
        ],
        "OxidiqueToken.transferFrom": [
          3,
          3,
          3
        ]
      },
      "statements": {
        "OxidiqueToken.transfer": [
          4,
          4
        ],
        "OxidiqueToken.transferFrom": [
          6,
          6
        ]
      },
      "totals": {
        "branches": [
          4,
          4,
          4
        ],
        "statements": [
          10,
          10
        ]
      }
    }
  },
  "highlights": {
    "branches": {
      "OxidiqueToken": {
        "0": [
          [
            3065,
            3095,
            "green",
            ""
          ],
          [
            3604,
            3629,
            "green",
            ""
          ],
          [
            3633,
            3665,
            "green",
            ""
          ],
          [
            3830,
            3866,
            "green",
            ""
          ]
        ]
      }
    },
    "statements": {
      "OxidiqueToken": {
        "0": [
          [
            4662,
            4694,
            "green",
            ""
          ],
          [
            4343,
            4381,
            "green",
            ""
          ],
          [
            4391,
            4434,
            "green",
            ""
          ],
          [
            4490,
            4501,
            "green",
            ""
          ],
          [
            4179,
            4202,
            "green",
            ""
          ],
          [
            4776,
            4803,
            "green",
            ""
          ],
          [
            3044,
            3168,
            "green",
            ""
          ],
          [
            3178,
            3208,
            "green",
            ""
          ],
          [
            3218,
            3241,
            "green",
            ""
          ],
          [
            3251,
            3289,
            "green",
            ""
          ],
          [
            3583,
            3748,
            "green",
            ""
          ],
          [
            3758,
            3781,
            "green",
            ""
          ],
          [
            3791,
            3816,
            "green",
            ""
          ],
          [
            3882,
            3918,
            "green",
            ""
          ],
          [
            3938,
            3971,
            "green",
            ""
          ],
          [
            4027,
            4038,
            "green",
            ""
          ]
        ]
      }
    }
  },
  "sha1": {}
}